ST558 Homework 4
…
Step 2.

Next, we parse the data using rawToChar combined with fromJSON. We are specifically looking to parse the data from content, so this is specified below. Once we parse the content, we then store the articles element as a tibble, making some minor modifications to more easily access the source name, remove entries with no content, and then selecting/rearranging the desired columns. The final data set will be stored as “articles_tbl”.

parsed_content <- fromJSON(rawToChar(news_return$content))

articles_tbl <- as_tibble(parsed_content$articles) |>
  mutate(source_name = source$name) |>
  filter(!is.na(author)) |>
  select(source_name, author, title, description, url, 
         urlToImage, publishedAt, content)

articles_tbl

# A tibble: 96 × 8
   source_name     author title description url   urlToImage publishedAt content
   <chr>           <chr>  <chr> <chr>       <chr> <chr>      <chr>       <chr>  
 1 Yahoo Entertai… Crist… Supe… "The newes… http… <NA>       2024-06-18… "If yo…
 2 Yahoo Entertai… Natha… Donk… "It's been… http… <NA>       2024-06-18… "If yo…
 3 Yahoo Entertai… Mat S… The … "Nintendo … http… <NA>       2024-06-19… "If yo…
 4 Yahoo Entertai… Anna … The … "After a b… http… <NA>       2024-06-20… "If yo…
 5 Wired           Megan… 'The… "Princess … http… https://m… 2024-06-18… "After…
 6 Wired           Megan… 'Met… "\"Metroid… http… https://m… 2024-06-18… "Metro…
 7 The Verge       Quent… Xbox… "CDKeys is… http… https://c… 2024-06-19… "Xbox …
 8 ReadWrite       Owen … Donk… "In a line… http… https://r… 2024-06-18… "In a …
 9 ReadWrite       Owen … Nint… "The fact … http… https://r… 2024-06-18… "The f…
10 ReadWrite       Paul … Metr… "Nintendo … http… https://r… 2024-06-18… "Ninte…
# ℹ 86 more rows
…
Here, we test the function by searching for articles on “olympic fencing” in the past 21 days and “presidential debate” in the last 5 days.

articles_tbl <- get_news("olympic fencing", 21, "api_key.R")
articles_tbl

# A tibble: 28 × 8
   source_name     author title description url   urlToImage publishedAt content
   <chr>           <chr>  <chr> <chr>       <chr> <chr>      <chr>       <chr>  
 1 HYPEBEAST       info@… Phar… Pharrell W… http… https://i… 2024-06-11… "Pharr…
 2 Brit + Co       Jasmi… All … I may not … http… https://w… 2024-06-06… "I may…
 3 Dazed           Valer… Bebe… At the age… http… https://i… 2024-06-04… "Taken…
 4 Dazed           Dazed… Read… Out now, t… http… https://i… 2024-06-11… "With …
 5 Screen Rant     Georg… 10 B… From time … http… https://s… 2024-06-04… "Summa…
 6 The Seattle Ti… THOMA… Vogu… On Interna… http… https://i… 2024-06-23… "PARIS…
 7 The Seattle Ti… JEROM… Doze… Curious on… http… https://i… 2024-06-17… "PARIS…
 8 International … AFP N… Vogu… Paris play… http… https://d… 2024-06-24… "Paris…
 9 Minneapolis St… The A… Pari… Athletes t… http… https://w… 2024-06-05… "A roa…
10 Minneapolis St… JEROM… Doze… Curious on… http… https://w… 2024-06-17… "PARIS…
# ℹ 18 more rows

articles_tbl <- get_news("presidential debate", 5, "api_key.R")
articles_tbl

# A tibble: 92 × 8
   source_name     author title description url   urlToImage publishedAt content
   <chr>           <chr>  <chr> <chr>       <chr> <chr>      <chr>       <chr>  
 1 Wired           Maken… Unwe… "TikTok cr… http… https://m… 2024-06-24… "Rober…
 2 NPR             Steve… Bide… "NPR's Ste… http… https://m… 2024-06-24… "NPR's…
 3 Business Insid… Grace… Trum… "Trump say… http… https://i… 2024-06-24… "Donal…
 4 Business Insid… Brent… RFK … "Shannahan… http… https://i… 2024-06-20… "Attor…
 5 Business Insid… Jacob… Hush… "Manhattan… http… https://i… 2024-06-21… "Donal…
 6 ReadWrite       Sophi… Kasp… "To bolste… http… https://r… 2024-06-21… "To bo…
 7 ReadWrite       Radek… Wink… "Gemini CE… http… https://r… 2024-06-21… "Gemin…
 8 Time            Rebec… Trum… "Donald Tr… http… https://a… 2024-06-23… "Forme…
 9 Slate Magazine  Ivy B… Ever… "But will … http… https://c… 2024-06-22… "This …
10 ABC News        Tal A… Bide… "Thursday'… http… https://i… 2024-06-24… "Even …
# ℹ 82 more rows
